{
  "kind": "List",
  "apiVersion": "v1",
  "metadata": {
    "name": "springboot-sti"
  },
  "items": [
    {
      "kind": "BuildConfig",
      "apiVersion": "v1",
      "metadata": {
        "name": "springboot-sti"
      },
      "spec": {
        "source": {
          "type": "Git",
          "git": {
            "uri": "https://bitbucket.org/sebag/mmspring.git",
            "ref": "master"
          },
          "contextDir": "s2i-java"
        },
        "strategy": {
          "type": "Docker",
          "dockerStrategy": {
            "from": {
              "kind": "ImageStreamTag",
              "name": "s2i-core-rhel7:latest"
            }
          }
        },
        "output": {
          "to": {
            "kind": "ImageStreamTag",
            "name": "springboot-sti:latest"
          }
        },
        "resources": {}
      }
    },
    {
      "kind": "ImageStream",
      "apiVersion": "v1",
      "metadata": {
        "name": "centos"
      },
      "annotations": {
        "openshift.io/image.insecureRepository": "true"
      },
      "spec": {
        "dockerImageRepository": "library/centos"
      }
    },
    {
      "kind": "ImageStream",
      "apiVersion": "v1",
      "metadata": {
        "name": "s2i-core-rhel7"
      },
      "annotations": {
        "openshift.io/image.insecureRepository": "true"
      },
      "spec": {
        "dockerImageRepository": "registry.access.redhat.com/rhscl/s2i-core-rhel7",
        "tags": [
          {
            "name": "latest",
            "annotations": {
              "description": "S2i core rhel7",
              "iconClass": "icon-jboss",
              "tags": "builder,springboot,java,maven",
              "supports": "springboot,java:8,maven:3",
              "version": "1.0"
            }
          }
        ]
      }
    },
    {
      "kind": "ImageStream",
      "apiVersion": "v1",
      "metadata": {
        "name": "springboot-sti"
      },
      "spec": {
        "dockerImageRepository": "",
        "tags": [
          {
            "name": "latest",
            "annotations": {
              "description": "Spring Boot STI image",
              "iconClass": "icon-jboss",
              "tags": "builder,springboot,java,maven",
              "supports": "springboot,java:8,maven:3",
              "version": "1.0"
            }
          }
        ]
      }
    }
  ]
}